…
## What is mean total number of steps taken per day?

The total number of steps taken per day:


```r
df <- tbl_df(activity)
total_steps_per_day <- df %>% group_by(date) %>% 
        summarize(total_steps = sum(steps))
total_steps_per_day
```

```
## # A tibble: 61 x 2
##          date total_steps
##        <fctr>       <int>
##  1 2012-10-01          NA
##  2 2012-10-02         126
##  3 2012-10-03       11352
##  4 2012-10-04       12116
##  5 2012-10-05       13294
##  6 2012-10-06       15420
##  7 2012-10-07       11015
##  8 2012-10-08          NA
##  9 2012-10-09       12811
## 10 2012-10-10        9900
## # ... with 51 more rows
```
…
